user_id;item_ids
1364;[1017127, 913210, 1013703, 5567262, 960733, 8019839, 1088462, 820011, 914188, 874061]
1172;[910587, 562839, 1055155, 1035946, 8203562, 1096740, 5578749, 1728192, 831517, 995211]
1060;[942271, 869847, 1132178, 873178, 825731, 6552565, 894103, 5567901, 8020044, 877850]
212;[904997, 875392, 1100096, 1051323, 850925, 950850, 1133858, 998793, 1074575, 873331]
718;[1132280, 819765, 9570409, 1080513, 1055155, 971922, 8091007, 1110572, 977499, 946660]
1617;[5995129, 913210, 1128016, 966843, 899766, 986709, 1045914, 8020044, 924990, 1061732]
1843;[1099190, 1066350, 895070, 5995129, 865528, 819840, 7441272, 834826, 849440, 857849]
2305;[819840, 826835, 1728192, 5593053, 1053690, 869216, 1126808, 1025581, 9521679, 901747]
1916;[953884, 1106091, 1080853, 820300, 1744220, 1105917, 1128016, 1095879, 850614, 966843]
271;[1054890, 6552565, 1132178, 1125426, 942271, 986709, 920955, 1024617, 894103, 6463710]
255;[927299, 1744220, 971195, 1105917, 1084694, 863429, 899184, 6463742, 1011482, 941172]
2371;[1132280, 1849775, 6772693, 904997, 1133858, 862754, 866697, 999714, 899184, 6424471]
1130;[1097704, 957828, 1046525, 953884, 966843, 1095879, 831888, 1868517, 903800, 8203562]
347;[1126808, 1122532, 873178, 865528, 833598, 8357687, 940796, 877180, 920955, 897044]
216;[955921, 910587, 5578749, 834117, 6773112, 995211, 1060926, 1070820, 1088584, 911713]
1913;[947441, 914188, 1092176, 1028816, 1085846, 1092026, 850925, 5592348, 5556558, 847207]
293;[8019839, 924299, 1007929, 869900, 821200, 1128016, 913210, 850925, 866697, 1047769]
2324;[952981, 1032532, 1015760, 1094308, 824974, 845774, 854405, 991397, 995876, 956506]
1345;[874853, 1095374, 931255, 1071377, 826842, 1035946, 1100265, 851716, 919406, 9487500]
1016;[1080513, 1062467, 7409944, 1132948, 803202, 5995176, 6979808, 913210, 873458, 990840]
122;[903800, 1100265, 947305, 6424175, 874853, 851716, 1095879, 904779, 1744220, 1074172]
1238;[922096, 908236, 1099190, 899766, 966843, 1045914, 866518, 1033046, 879922, 1114597]
1828;[916133, 872066, 1096740, 914188, 967461, 9571047, 5593053, 1530827, 913623, 982790]
1377;[925112, 916133, 1122998, 872137, 1088387, 924299, 913785, 5578437, 1026209, 851676]
2105;[1128016, 953884, 1110218, 903800, 1006184, 1134483, 906345, 846043, 6904514, 1039534]
315;[927191, 869900, 1106301, 1015760, 950850, 1085983, 862754, 970881, 7409944, 996298]
1287;[1035946, 1017127, 831517, 1042702, 1013703, 677582, 6979801, 994637, 913210, 845053]
1289;[1027168, 1112780, 871876, 1013703, 1744220, 927299, 819308, 958647, 8119094, 884103]
480;[1028816, 1105938, 6554027, 906900, 947741, 1129671, 918335, 1100265, 1047441, 9655679]
2192;[824974, 1122532, 845774, 857503, 1129671, 935931, 1094308, 6554027, 5592348, 923673]
593;[7410071, 1028816, 866518, 908236, 1135834, 922096, 8273833, 40885, 834491, 837339]
2110;[824758, 1132280, 1073745, 1123014, 1133858, 971195, 5569471, 6534074, 1024755, 965292]
2362;[1080513, 9570409, 1123692, 1132280, 973890, 5570048, 899184, 919644, 946660, 7442008]
2044;[1079482, 922096, 949784, 1015760, 1114597, 927191, 1076056, 5568378, 953561, 891837]
2336;[1028816, 970881, 845774, 986947, 857503, 983584, 891837, 6391153, 948499, 976112]
924;[1080153, 834911, 999941, 871680, 909894, 1133694, 562839, 1021562, 1070716, 9526411]
432;[1128016, 953884, 1095879, 903800, 1097704, 7147317, 966843, 831888, 1039534, 5556558]
1116;[993161, 850743, 1027168, 1051323, 1102831, 1088462, 885863, 983659, 1064002, 819308]
304;[9705882, 969800, 1092835, 820300, 1053016, 983659, 936889, 977928, 5574045, 845208]
1629;[1070820, 983659, 981521, 6773238, 1091434, 1055168, 966148, 9297461, 941769, 945086]
1490;[9570409, 819765, 1080513, 1123692, 899184, 1132280, 8091007, 973890, 834911, 971922]
343;[1106091, 905353, 5591230, 1000753, 902961, 1085983, 1094352, 6391153, 825153, 1035946]
34;[1047441, 1027168, 958647, 995686, 871876, 1112780, 880427, 460165, 1078967, 916133]
1929;[1122998, 9547020, 1023958, 6548453, 987044, 993161, 1080153, 988693, 1095374, 9881948]
827;[1102949, 1059823, 8067271, 880427, 880888, 955921, 1102831, 997455, 863429, 962782]
568;[1070716, 1042907, 1102831, 941870, 824037, 842886, 911713, 6463742, 955921, 835300]
575;[7410071, 562839, 922096, 1110572, 852940, 969568, 1110409, 5571444, 1115576, 1125278]
2473;[1066350, 957343, 966843, 7441272, 994637, 919644, 850676, 865528, 831517, 6773229]
98;[841697, 969568, 952981, 1066350, 9571047, 1075001, 966843, 1062980, 6772743, 6463445]
14;[1028995, 1106301, 1053690, 1129671, 279994, 6391504, 969800, 1015760, 1032532, 827919]
474;[910587, 834117, 955921, 1070716, 1055155, 6773112, 5578749, 1013703, 1026209, 908318]
1123;[983659, 977654, 6773238, 962516, 858903, 1085435, 852940, 911713, 898212, 1075786]
1558;[1035691, 6463710, 998352, 914188, 1122532, 1013703, 845053, 993161, 1054999, 1092026]
2352;[916133, 1026209, 925862, 872066, 872137, 9364612, 7463645, 862732, 5567601, 883404]
361;[8019839, 913210, 821200, 1013703, 924299, 1128016, 6978871, 869900, 845053, 937928]
681;[1132280, 1080513, 975512, 924299, 819765, 971922, 988693, 6554027, 899184, 6773219]
630;[1035946, 1085983, 908318, 1040553, 1091365, 1134483, 993044, 1013703, 1080153, 955921]
585;[1080153, 913210, 987044, 1013703, 834911, 949784, 1074662, 6396534, 891061, 999941]
2141;[872137, 916133, 1128880, 872066, 9364612, 862732, 1036432, 821200, 921504, 885863]
2018;[1035946, 931255, 9705882, 1082595, 5587974, 1063594, 919406, 950713, 969800, 6391504]
2218;[843464, 640678, 1037863, 947441, 7169088, 1092026, 8091550, 1084694, 941515, 983584]
364;[913210, 1013703, 1004436, 1133018, 994637, 995211, 841287, 821200, 6978871, 942189]
2009;[950713, 874853, 797627, 1035946, 1095374, 931255, 913210, 826842, 1092032, 1004899]
240;[5995491, 866518, 963727, 6391153, 5592348, 1085846, 933238, 1076875, 6424175, 948499]
381;[1080853, 885863, 1122532, 996975, 981521, 1104647, 860975, 969800, 1070820, 1088462]
528;[1133018, 1048727, 1135681, 877850, 952981, 936851, 991397, 879755, 840011, 982360]
698;[8019839, 924299, 821200, 1128016, 872137, 869900, 937928, 830503, 991844, 1037089]
2427;[8019839, 924299, 869900, 899184, 1128016, 821200, 1070272, 983399, 970028, 8205218]
2089;[1004899, 6424471, 5592348, 1094308, 1128016, 5995129, 5572220, 1099802, 1039534, 1099190]
926;[850925, 986492, 875392, 950850, 904997, 1051323, 1100096, 1088683, 1074575, 1085983]
1590;[1110218, 960142, 948650, 991844, 847270, 9526773, 1040553, 1123254, 904779, 1088584]
614;[973135, 906345, 989069, 819840, 1126808, 8118517, 834117, 956506, 985999, 920223]
1096;[880427, 9571047, 6463742, 863429, 835300, 834435, 880888, 997455, 1078967, 562839]
1466;[6554027, 903852, 1080513, 821612, 834117, 933238, 963727, 1122998, 905593, 1132280]
77;[845774, 981521, 9547020, 1092026, 1086063, 941515, 1042907, 962516, 977654, 921504]
887;[841697, 913210, 9570409, 1032532, 5574358, 6772743, 1129671, 829515, 968215, 1066796]
1633;[1035946, 7410071, 852940, 8020044, 858420, 6395966, 969836, 924990, 995686, 1082595]
1723;[1133018, 982790, 1135681, 831517, 1110632, 842614, 1530827, 825123, 914188, 1004436]
1371;[1035946, 8019839, 821200, 1128016, 1013703, 8067012, 1028953, 927011, 858420, 913210]
2328;[1096865, 279994, 8203606, 844740, 1004436, 1120009, 996975, 1101174, 861419, 969800]
287;[922096, 879922, 1110572, 983584, 1028816, 908236, 866518, 1114597, 957343, 986912]
100;[1013703, 1070716, 828385, 996188, 1068544, 1068832, 919644, 824037, 1132771, 922096]
1241;[1066350, 1099190, 865528, 908236, 9296950, 957343, 966843, 8091007, 834826, 850676]
1745;[1123014, 999941, 6463718, 9297461, 1080153, 1112780, 1133694, 1045885, 834911, 909894]
1258;[869900, 1106301, 976526, 1015760, 279994, 839418, 838186, 840011, 1094352, 1028995]
965;[1035946, 6424471, 982790, 914188, 8020044, 653704, 1115175, 1082595, 940136, 462294]
529;[903800, 851716, 1100265, 1134483, 931255, 1029743, 995686, 1048746, 1071377, 874853]
687;[1037751, 941515, 1034176, 482616, 1027168, 990453, 1086063, 677582, 9547020, 983584]
2327;[1094308, 841697, 1037863, 8068338, 1084694, 6463742, 1106091, 1080155, 1092176, 1043230]
1549;[1744220, 969800, 1105917, 948499, 5995491, 1101411, 1069609, 850614, 927299, 1013597]
907;[1063594, 1122998, 963727, 834117, 9705882, 1086063, 989069, 819840, 5566748, 941515]
1316;[1080153, 834911, 999941, 909894, 1133694, 1070716, 562839, 871680, 1021562, 9526411]
2116;[562839, 1082185, 6773219, 6463742, 5566748, 1026118, 987044, 1047805, 9547020, 1035321]
1652;[1126808, 1122532, 873178, 865528, 833598, 8357687, 940796, 877180, 920955, 897044]
2200;[976526, 1035946, 1076056, 1070716, 828385, 6772950, 1068544, 6703956, 916758, 847982]
401;[983584, 6773238, 845774, 977654, 1086063, 843464, 981521, 919644, 1076056, 916758]
1861;[9571047, 1004899, 857503, 1094308, 872066, 880427, 824974, 1122532, 1105938, 841697]
175;[981521, 993161, 5567376, 996188, 925652, 1034686, 1120009, 871876, 1122532, 9855121]
1584;[8067271, 1078967, 880427, 6463742, 962782, 1059966, 562839, 9527189, 924299, 927880]
2185;[981521, 996188, 993161, 925652, 1070820, 1095393, 827180, 9881948, 1080853, 1035691]
1426;[880427, 1078967, 6464027, 1030973, 986709, 983424, 835300, 880888, 863429, 857503]
1601;[1128016, 953884, 1095879, 6904514, 1097704, 966843, 903800, 1039534, 831888, 942189]
2263;[926422, 1054999, 962516, 1068832, 924990, 1132018, 830070, 1055155, 834117, 996833]
114;[1066350, 1099190, 865528, 876115, 942271, 952981, 920955, 894103, 9487534, 841287]
1026;[914188, 982790, 961620, 967461, 822256, 947441, 9855121, 1088683, 989935, 831517]
332;[989069, 906345, 962991, 1000753, 945494, 5591230, 1110218, 8118517, 905353, 898103]
693;[869900, 1080513, 1066350, 8019839, 908236, 924299, 1128016, 899184, 5995129, 821200]
999;[8067271, 914188, 1055155, 1134483, 1035946, 462294, 1115175, 851716, 976526, 1013703]
536;[1105917, 927299, 1744220, 1028995, 1084694, 899184, 1011482, 6772693, 8204501, 969800]
467;[8020044, 913210, 7410071, 6554027, 1085846, 1035946, 9570409, 1053931, 961737, 5574358]
372;[1027168, 1017127, 962782, 983659, 1078967, 880427, 825731, 1082735, 9571047, 999391]
2008;[1076056, 1042907, 956666, 1021562, 908318, 898212, 922096, 1079482, 986947, 8090532]
105;[989069, 5591230, 906345, 6703956, 1034176, 1055168, 973135, 819840, 985999, 1000753]
340;[999779, 927191, 1076160, 1023958, 981521, 819765, 9881948, 826067, 988693, 993161]
1878;[998793, 1114050, 1055155, 1042907, 1051323, 904997, 955921, 910587, 834117, 1100096]
70;[1053690, 866697, 857849, 1028816, 6391153, 826835, 7144140, 821612, 9487278, 1013429]
1733;[1128016, 903800, 1097704, 953884, 1095879, 831888, 1039534, 966843, 6904514, 1074172]
1412;[1132280, 1126808, 9570409, 968590, 927191, 998793, 988693, 991091, 995311, 849274]
1917;[1110409, 1076160, 1096865, 869900, 830070, 9570409, 991091, 6548453, 933067, 937928]
947;[989069, 906345, 1000753, 962991, 945494, 819978, 5995985, 900175, 905353, 8118517]
2317;[916133, 872066, 9571047, 913623, 5593053, 948499, 937995, 841697, 989798, 872137]
1551;[1004899, 1122532, 1115175, 1055168, 1094308, 1100265, 938596, 1024020, 827919, 1104647]
437;[562839, 933067, 1110409, 1011303, 854405, 972931, 9527189, 969601, 834435, 1082090]
365;[1126808, 1122532, 873178, 865528, 833598, 8357687, 940796, 877180, 920955, 897044]
2102;[1035946, 7410071, 8020044, 858420, 5567901, 852940, 6395966, 1053931, 969568, 1082595]
1689;[869900, 1128016, 8019839, 991091, 927191, 872137, 899184, 1105917, 924299, 958598]
1107;[1042907, 911713, 1076056, 922096, 834117, 910587, 6773112, 1055155, 908318, 1060926]
1083;[6552565, 1054890, 942271, 1132178, 1125426, 920955, 894103, 1106271, 1081177, 1062117]
1432;[1035946, 7410071, 8020044, 852940, 5567901, 858420, 6395966, 910473, 924990, 1130716]
454;[7409944, 1062467, 873458, 1051323, 5995176, 850743, 985999, 482616, 833598, 988693]
2247;[5566748, 5995491, 963727, 6554027, 933238, 9297461, 1013597, 995686, 1063594, 6463445]
1467;[851716, 995686, 1037876, 1128880, 462294, 1132948, 1020604, 1030868, 5996380, 913210]
1184;[6554027, 1047441, 6463445, 843744, 906900, 1030289, 1129671, 947741, 1105938, 1067239]
1228;[6391153, 1046525, 819840, 989069, 963727, 941515, 5566748, 1032532, 834117, 6703956]
1351;[913210, 1035691, 1125426, 1054890, 1068544, 1039831, 1088462, 1024617, 6463710, 1132948]
1284;[9297461, 1112780, 9526673, 1027168, 1605189, 1091434, 947441, 937110, 858903, 914188]
2478;[1051323, 1092032, 1080153, 1053016, 993161, 820300, 820011, 1123014, 9705882, 913210]
650;[914188, 1028816, 1092176, 947441, 9571047, 1092026, 982790, 967461, 976112, 5593053]
314;[903800, 1128016, 947305, 1096437, 904779, 1095879, 8203562, 1097704, 1132771, 1043726]
1852;[1035946, 1082595, 8020044, 968590, 865705, 995686, 924299, 8019839, 1037089, 899184]
988;[1128016, 903800, 933609, 913210, 1074172, 904779, 1128880, 7410274, 1059823, 1039831]
223;[1122998, 9547020, 1040145, 988693, 851676, 8090536, 1026118, 1082185, 677582, 1023958]
1185;[875392, 1035946, 910473, 998793, 5567901, 6772693, 1037863, 823990, 873331, 1074575]
2252;[677582, 1027168, 884103, 958647, 871876, 460165, 845053, 1112780, 1013703, 1017127]
470;[1066350, 1099190, 9296950, 6554027, 908236, 865528, 981944, 8091007, 1106091, 876115]
2413;[1027168, 958647, 916133, 1017127, 1119112, 1095374, 993161, 1013703, 1035946, 1134533]
404;[6773238, 983659, 950713, 1605189, 898212, 977654, 5996380, 1095374, 981521, 947305]
235;[7410071, 1028816, 8020044, 841697, 918335, 839849, 1129671, 6463445, 1106091, 1032532]
2223;[1025581, 1728192, 866697, 819840, 820300, 826835, 1053690, 9487278, 894425, 953884]
2039;[9881948, 989069, 906345, 1110218, 833648, 850614, 5591230, 962991, 985999, 905353]
1905;[1122998, 9547020, 885863, 1040145, 925862, 1075470, 989069, 925112, 951590, 9270757]
1138;[9705882, 969800, 820300, 936889, 6424471, 847207, 1123014, 896613, 1063594, 977928]
604;[1035946, 1070716, 910587, 1013703, 828385, 824037, 955921, 1017127, 6773112, 1085983]
2482;[8019839, 924299, 909894, 1059966, 821200, 872137, 1128016, 1029743, 1028953, 820011]
778;[947305, 993161, 977499, 1100265, 1095374, 903800, 904779, 1054999, 1029743, 942189]
2357;[851676, 1122998, 5578437, 925112, 1040145, 9855121, 819765, 9547020, 1132018, 1104831]
294;[904997, 871876, 1059823, 993161, 850925, 947441, 1102831, 950850, 1075470, 868542]
280;[8019839, 991844, 924299, 821200, 1128016, 1082595, 859259, 872137, 1123014, 830503]
805;[904997, 875392, 1100096, 1051323, 850925, 998793, 950850, 1133858, 1074575, 873331]
25;[891654, 5566748, 1045914, 963727, 1055155, 1133858, 933238, 950850, 878574, 1117393]
259;[1035946, 874853, 1095374, 1063594, 826835, 826842, 6391504, 9487500, 5996380, 931255]
2307;[1040553, 1073745, 971195, 1132280, 1059300, 965292, 6534074, 993044, 9297461, 1123014]
626;[8067271, 885863, 1102831, 1094352, 1059823, 863429, 949784, 1015760, 1088683, 7168144]
2375;[1128016, 903800, 953884, 948499, 6391153, 821200, 869900, 851716, 1106091, 908236]
2058;[1048727, 6463742, 877850, 941870, 1017373, 9571047, 8067271, 833307, 883003, 962782]
1794;[1076056, 852940, 8203562, 922096, 1042907, 1605189, 986492, 1102949, 982790, 1055155]
2224;[981521, 993161, 9881948, 942189, 996188, 1120009, 1013703, 1104647, 1034686, 960253]
1361;[884103, 1017127, 909894, 677582, 1112780, 871876, 1027168, 562839, 460165, 6463742]
451;[981521, 1088683, 904997, 1034686, 993161, 871876, 1051323, 875392, 1026531, 1075470]
433;[981521, 6773238, 1076056, 977654, 1042907, 1055155, 9547020, 845774, 892503, 1070820]
125;[922096, 1110572, 866518, 7410071, 986912, 8273833, 5568378, 1114597, 1135834, 1049133]
1019;[983659, 898212, 6773238, 1605189, 885468, 852940, 1054644, 1075786, 941033, 878857]
2374;[1132948, 1080513, 1062467, 1035946, 7409944, 5995176, 873458, 834117, 903852, 1036661]
2193;[845774, 1052789, 1086063, 866211, 6773219, 9362429, 919596, 1101174, 1007195, 951590]
1835;[1134483, 828370, 1130666, 1102949, 940332, 1128016, 1055155, 5570048, 1091365, 1013597]
183;[1027168, 842886, 835300, 941870, 8064058, 863429, 880888, 677582, 880427, 962782]
2334;[1126808, 1122532, 873178, 865528, 833598, 8357687, 940796, 877180, 920955, 897044]
1356;[1080513, 1062467, 1132948, 7409944, 5995176, 1034176, 986596, 482616, 903852, 834117]
1110;[995686, 924990, 968590, 904779, 986709, 1055155, 1605189, 6034648, 5574045, 1082595]
2392;[834117, 819840, 7409944, 1126808, 1114597, 986947, 990840, 1132948, 831578, 5995176]
551;[9571047, 562839, 863429, 1122532, 880427, 677582, 857503, 925652, 834435, 829235]
2146;[562839, 1054890, 8119094, 6552565, 933067, 854405, 1132178, 834435, 895295, 9527290]
1308;[906345, 989069, 962991, 1110218, 945494, 1000753, 905353, 898103, 5591230, 8118517]
2064;[1128016, 1744220, 903800, 1105917, 821200, 1095879, 953884, 1039534, 1106523, 1074172]
1292;[7410071, 1134483, 826842, 1100265, 1048746, 1071377, 1013947, 8205218, 1099058, 1095374]
52;[922096, 871876, 1049133, 1068832, 983584, 981521, 5569374, 828385, 956666, 1042907]
362;[1035946, 919644, 9570409, 926422, 1055155, 1040553, 955921, 995211, 993044, 1013703]
1220;[931255, 874853, 1071377, 1035946, 826842, 1095374, 1100265, 851716, 9487500, 1128880]
888;[1099190, 866697, 6554027, 1133018, 1005186, 841697, 6463445, 1066350, 821200, 898103]
111;[986709, 1037876, 6602744, 1132948, 1030868, 1105938, 995686, 1088462, 880427, 6464027]
2356;[1048727, 851676, 5566748, 9855121, 9270757, 1104831, 883003, 5578437, 884103, 925112]
2417;[1055155, 1070716, 6463742, 1605189, 6773238, 955921, 1054644, 982790, 1020762, 8067271]
996;[1127831, 851676, 895295, 9855121, 1088683, 1136199, 885430, 5578437, 9297155, 884103]
884;[1110572, 922096, 1030973, 935931, 1020078, 9570409, 1042907, 995686, 562839, 1046525]
1569;[1085983, 825153, 1028995, 1053282, 1035946, 5593053, 1025581, 976526, 842614, 894425]
2448;[989069, 906345, 1110218, 962991, 945494, 1133378, 5591230, 958598, 898103, 905353]
1421;[8203606, 6703800, 1072685, 1004436, 903852, 1080513, 826215, 1095068, 1110632, 1095374]
1128;[828385, 1035946, 1017127, 1082735, 1027168, 9526673, 1112780, 895295, 1085983, 1070716]
700;[1035946, 973135, 1063594, 1122998, 1017127, 9705882, 977928, 820300, 1082595, 834117]
629;[1027168, 1017127, 1112780, 958647, 909894, 1028953, 8119094, 951221, 874061, 460165]
2297;[1035946, 995211, 1060926, 1042907, 922096, 910587, 998793, 1085983, 1133858, 1068544]
1767;[1099190, 966843, 1128016, 1110218, 981521, 1066350, 1033046, 865528, 908236, 953884]
932;[819840, 826835, 1728192, 1053690, 1126808, 5593053, 869216, 1025581, 9521679, 894425]
51;[1027168, 8119094, 958647, 916133, 1028953, 871876, 460165, 482616, 901367, 1065875]
659;[279994, 562839, 927191, 1015760, 1110409, 986492, 1082090, 972931, 933067, 1073745]
308;[1080853, 1004899, 1094308, 827919, 1081177, 5587974, 996975, 1099802, 1085983, 1051516]
2124;[995686, 1037876, 1132948, 986709, 8067012, 821200, 851716, 1078967, 1020604, 5567325]
2231;[9705882, 969800, 820300, 1053016, 977928, 996975, 983659, 936889, 845208, 1092835]
1559;[819765, 869900, 1094352, 1093007, 5570048, 840011, 930283, 996298, 911454, 8019839]
93;[1096437, 830070, 1055168, 832661, 845053, 973471, 9487993, 926422, 898103, 1043726]
1576;[1066350, 865528, 1099190, 908236, 966843, 8091007, 834826, 9296950, 957343, 1111839]
2051;[910587, 981521, 834117, 1013703, 6773112, 1026209, 1053690, 1070820, 1035691, 8203562]
918;[1135681, 877850, 1048727, 936851, 1133018, 879755, 982360, 9297223, 937657, 9297461]
2257;[916133, 872066, 7410071, 839849, 852940, 913623, 1035946, 989798, 862732, 8020044]
560;[976526, 1076056, 6772950, 828385, 922096, 1082735, 983584, 9526673, 916758, 847982]
1827;[6602744, 894425, 8067012, 1132948, 1728192, 1053690, 1051516, 1039831, 869216, 1058709]
2143;[562839, 933067, 1728192, 973135, 8352928, 969601, 1110409, 863075, 831578, 866697]
1818;[6548453, 926422, 1096437, 1054999, 819308, 1040553, 845053, 993044, 987044, 977499]
1655;[862754, 986947, 927191, 850925, 869900, 875392, 1028816, 1138487, 970881, 1135681]
1390;[1017127, 1027168, 1035946, 962991, 9487993, 5567601, 925862, 916133, 989069, 831517]
1136;[948650, 960142, 1102949, 941870, 942189, 1102831, 1115175, 842886, 1131634, 880888]
1001;[6773238, 1605189, 983659, 1054644, 9547020, 914188, 1081177, 969800, 982790, 1037863]
427;[1134483, 6391153, 1128016, 903800, 948499, 1039534, 963727, 1097704, 5995491, 995686]
886;[903852, 1080513, 5995176, 1082090, 1037840, 831578, 854405, 7409944, 995965, 9297223]
2429;[913210, 1051516, 958647, 1028953, 820300, 821200, 1080155, 9705882, 1004899, 1051323]
1163;[8019839, 821200, 924299, 872137, 1128016, 937928, 913210, 869900, 991844, 830503]
2028;[1035946, 8020044, 858420, 852940, 6395966, 7410071, 924990, 6772693, 6703956, 996961]
226;[8019839, 913210, 1080513, 924299, 975512, 1122998, 854405, 6554027, 873458, 962782]
1707;[895295, 1085983, 958647, 1115175, 1055168, 982790, 1082735, 1030973, 1027168, 9526673]
1833;[1037876, 1132948, 986709, 1128880, 1105938, 851716, 6464027, 1020604, 874853, 1045220]
2406;[6773219, 989069, 1032532, 952981, 1015760, 5566748, 562839, 943116, 6463742, 1075470]
708;[5566748, 962782, 913210, 8067012, 8019839, 916133, 970747, 884291, 821200, 995686]
905;[1013703, 845053, 913210, 1042702, 677582, 5567262, 993044, 1091365, 1040553, 860299]
646;[851676, 1122998, 5578437, 9547020, 925112, 1040145, 819765, 9855121, 1132018, 883003]
2399;[1128016, 903800, 1097704, 953884, 1095879, 831888, 1039534, 966843, 6904514, 1074172]
1967;[6772693, 927299, 1084694, 904997, 849274, 1105917, 1028995, 1051323, 875392, 998793]
281;[875392, 998793, 1054890, 894103, 1100096, 1074575, 942271, 1132178, 1051323, 1062117]
1579;[986947, 640678, 976112, 1028816, 1005186, 1092176, 947441, 970881, 1084694, 9571047]
773;[6554027, 1047441, 6463445, 906900, 843744, 1030289, 1105938, 1088998, 947741, 918335]
1769;[1066350, 1099190, 922340, 908236, 1944227, 969568, 865528, 9296950, 957343, 834826]
1353;[953884, 874853, 851716, 6424175, 1074172, 902172, 875118, 873331, 1037876, 1095879]
2002;[1048727, 877850, 1094308, 956506, 819976, 1037863, 952981, 1104831, 6463742, 1136199]
1309;[5995129, 6424471, 6534078, 5592348, 5572220, 922092, 896613, 6554027, 8020044, 1034686]
273;[1080513, 1132948, 7409944, 5995176, 1062467, 803202, 873458, 482616, 903852, 834117]
2331;[970881, 986947, 869900, 1015760, 1094308, 827919, 923747, 976112, 1106301, 958598]
1760;[1040145, 1122998, 912681, 851676, 1060926, 1082185, 5578749, 7169092, 971922, 1047441]
655;[1035946, 7410071, 8020044, 852940, 924990, 1082595, 6395966, 858420, 1053931, 5567901]
2207;[1128016, 913210, 991844, 933609, 904779, 1074172, 6978871, 968590, 8019839, 993044]
784;[913210, 1099802, 8019839, 6978871, 1128016, 1039831, 821200, 869900, 1004899, 1078967]
1263;[6554027, 996833, 1054999, 1047441, 869755, 1105878, 843744, 1030289, 6463445, 830070]
2493;[6396534, 909894, 1029743, 6554027, 6978871, 906900, 940947, 834911, 999941, 1047441]
613;[986947, 1114597, 1028816, 1069609, 1076875, 7169088, 948499, 5995491, 1101411, 1135834]
951;[851676, 1122998, 5578437, 9547020, 1040145, 819765, 1132018, 925112, 884103, 883003]
679;[956506, 1094308, 825153, 866211, 1052789, 842614, 879922, 857503, 1037863, 1004899]
1388;[5566748, 9571047, 885863, 880427, 970747, 962782, 1046525, 845208, 913623, 9705882]
142;[1047441, 880888, 983424, 1065875, 835300, 6554027, 1102831, 941870, 842886, 9571047]
730;[986947, 640678, 976112, 1028816, 947441, 1005186, 1092176, 970881, 1084694, 900370]
1803;[1106301, 949784, 941033, 927191, 1015760, 1039118, 9881948, 1134483, 6548453, 1105604]
1616;[562839, 828385, 9526673, 976526, 1017127, 5593053, 1045885, 1080153, 1085983, 1530827]
2165;[1035946, 1128016, 913210, 904779, 821200, 858420, 903800, 1074172, 1061732, 924990]
500;[986947, 640678, 976112, 1028816, 947441, 1005186, 1092176, 970881, 1084694, 900370]
994;[894103, 1066350, 9705882, 969568, 1816456, 1082595, 1035946, 1000753, 977928, 1092835]
1809;[966843, 908236, 1099190, 922096, 1066350, 952981, 1106091, 1944227, 1020078, 869900]
1094;[1092176, 1099190, 865528, 7441272, 1028816, 1092026, 905593, 1066350, 1025581, 895070]
1117;[901747, 819840, 1035946, 866697, 9487278, 899766, 973135, 831578, 1025581, 1126808]
1939;[826835, 1728192, 834117, 819840, 1053690, 869216, 5593053, 1126808, 935126, 894425]
253;[1128016, 966843, 1011303, 972931, 1097704, 957828, 6904514, 939596, 8203562, 1096740]
2492;[1066350, 983584, 977654, 919644, 926422, 865528, 966843, 6548453, 1080513, 841287]
128;[9705882, 977928, 820300, 1063594, 5574045, 936889, 1055155, 9570409, 1017127, 983659]
